{
  "ernVersion": "0.44.1",
  "jsApiImpls": [],
  "miniApps": [
    "electrode-mini-app@0.0.3"
  ],
  "nativeDeps": [
    "react-native@0.63.2",
    "ernnavigation-api@1.3.0",
    "ernnavigation-api-impl-native@1.4.21",
    "react-native-electrode-bridge@1.5.27"
  ],
  "platform": "android"
}